25

53 71
19
4 29
23 13
8 25
21 16
6 18
35 7
37 38
11 66
36 20
52 27
50 27
25 69
16 67
1 0
40 60
15 1
19 63
52 63
33 14
169 124

37 13
11
9 12
9 12
28 11
31 11
18 12
14 9
26 9
14 5
8 7
12 5
5 8
307 85

46 45
12
15 34
20 5
34 4
12 8
15 35
1 23
9 27
41 9
27 27
5 19
13 21
18 39
240 61

62 14
15
42 12
22 7
30 8
36 0
23 3
16 3
26 2
8 7
38 3
47 10
24 4
14 13
11 5
40 7
20 7
154 103

22 21
19
0 0
2 1
3 11
17 4
15 7
21 5
11 1
16 11
21 14
0 5
16 7
10 9
11 2
1 11
16 10
15 15
11 7
8 19
9 11
369 67

38 49
17
24 2
9 23
0 18
31 14
1 34
6 40
24 46
8 17
26 22
19 1
7 36
32 4
2 19
30 27
7 38
11 32
33 24
288 79

21 46
20
13 43
4 23
17 17
12 33
8 32
6 37
19 10
4 30
0 11
2 3
13 7
8 15
6 0
17 18
2 37
6 14
13 22
10 17
17 19
15 45
599 39

61 70
10
42 0
2 41
33 69
34 8
7 16
3 37
24 68
44 40
12 45
21 51
586 33

22 43
15
20 18
20 10
14 0
8 17
12 15
20 16
15 33
15 12
21 19
6 14
2 5
10 26
7 11
1 31
1 39
306 37

44 52
10
36 16
33 11
38 25
21 50
35 12
40 32
22 6
40 7
35 48
37 10
438 131

30 54
16
22 18
20 34
7 34
25 44
23 39
2 46
13 31
9 1
29 14
12 33
11 42
22 17
23 3
1 38
27 46
16 27
82 131

24 29
11
1 6
11 22
4 24
17 15
8 24
8 5
11 14
8 11
1 9
10 20
6 0
445 90

5 26
11
2 5
0 0
0 13
1 25
0 19
1 5
3 22
0 25
1 9
3 11
1 23
154 191

13 61
16
5 47
12 50
11 50
12 4
11 21
3 47
7 8
1 51
3 33
6 42
3 40
12 22
0 58
12 52
7 26
10 54
491 54

74 74
14
46 66
2 54
69 18
46 13
35 0
49 51
46 1
5 72
40 55
22 68
46 14
6 16
6 2
50 56
249 181

25 5
12
2 0
23 2
11 4
16 3
12 0
20 0
23 4
12 0
9 1
10 4
16 2
24 0
143 70

52 1
14
29 0
37 0
21 0
43 0
15 0
30 0
25 0
31 0
8 0
48 0
51 0
42 0
45 0
40 0
569 181

71 58
20
64 44
63 38
36 15
31 24
40 15
41 44
21 2
43 46
8 41
66 10
70 40
54 48
53 50
8 46
28 46
30 3
19 52
8 18
58 37
10 12
367 86

5 3
19
1 2
2 1
2 2
4 0
4 1
1 2
2 0
3 1
1 1
0 1
0 0
1 1
4 1
2 2
0 1
2 0
1 1
4 0
2 1
266 170

21 52
12
7 33
2 5
11 15
20 2
10 33
15 5
12 11
4 10
3 22
10 49
17 27
19 34
366 35

70 44
19
21 22
51 43
62 41
31 28
57 36
59 2
22 5
61 2
13 34
50 42
10 43
30 12
53 34
52 37
34 38
32 16
41 33
12 1
13 37
417 100

9 14
10
8 11
8 0
4 4
4 8
8 12
0 2
3 1
5 2
0 10
0 12
319 138

61 4
13
32 3
36 3
47 2
7 0
40 3
5 3
22 3
28 1
49 3
24 3
50 0
54 3
3 3
503 168

3 3
12
0 1
2 0
2 0
2 0
1 0
0 2
0 2
1 1
1 0
1 0
2 1
1 0
332 17

23 29
17
1 13
3 11
10 21
3 18
16 9
7 9
3 12
17 1
17 26
12 1
20 27
2 2
17 12
3 25
3 28
3 9
22 14
552 7
