*** Life<ConwayCell> 4x4 ***

Generation = 0, Population = 12.
**.*
**.*
*.**
**.*

Generation = 2, Population = 3.
....
..*.
...*
..*.

Generation = 4, Population = 0.
....
....
....
....

*** Life<ConwayCell> 7x7 ***

Generation = 0, Population = 15.
.*.*..*
..**.*.
.....*.
...*...
**.*...
..**...
.*..*..

*** Life<ConwayCell> 10x1 ***

Generation = 0, Population = 7.
*
*
*
.
.
*
*
*
*
.

Generation = 2, Population = 0.
.
.
.
.
.
.
.
.
.
.

Generation = 4, Population = 0.
.
.
.
.
.
.
.
.
.
.

*** Life<ConwayCell> 8x7 ***

Generation = 0, Population = 14.
.*..*..
..*...*
.......
..**.**
****...
...**..
.......
.......

Generation = 2, Population = 8.
.......
.......
..**.*.
...*..*
.....*.
..*.*..
.......
.......

Generation = 4, Population = 10.
.......
...*...
..*.**.
......*
..**.**
....*..
.......
.......

*** Life<ConwayCell> 8x10 ***

Generation = 0, Population = 15.
*.*.......
.....***..
..........
.*........
.....*....
*.......*.
.....**...
**.....**.

Generation = 2, Population = 8.
..........
.....***..
..........
..........
..........
.....***..
..........
......**..

*** Life<ConwayCell> 8x4 ***

Generation = 0, Population = 15.
..*.
.*..
.*.*
..*.
.**.
****
.**.
*.*.

*** Life<ConwayCell> 9x6 ***

Generation = 0, Population = 1.
......
......
......
......
......
......
......
*.....
......

Generation = 2, Population = 0.
......
......
......
......
......
......
......
......
......

*** Life<ConwayCell> 4x10 ***

Generation = 0, Population = 18.
**...***..
...*..**..
.*.**..*.*
.*.*.**..*

Generation = 2, Population = 9.
..........
..*.*.*...
...*..**..
....*.**..

Generation = 4, Population = 8.
......*...
...*.**...
...*......
....***...

*** Life<ConwayCell> 4x3 ***

Generation = 0, Population = 9.
***
*.*
***
..*

Generation = 2, Population = 2.
...
...
.*.
.*.

*** Life<ConwayCell> 4x10 ***

Generation = 0, Population = 10.
...*....*.
.......*..
.*....*.**
*......**.

Generation = 2, Population = 6.
..........
........*.
......*..*
.......***

*** Life<ConwayCell> 2x4 ***

Generation = 0, Population = 2.
..*.
*...

Generation = 2, Population = 0.
....
....

*** Life<ConwayCell> 7x10 ***

Generation = 0, Population = 13.
....*.....
*.......**
..*..*....
.....*...*
..........
*...***...
.......*..

Generation = 2, Population = 5.
..........
..........
..........
..........
......*...
....*..*..
.....**...

*** Life<ConwayCell> 7x6 ***

Generation = 0, Population = 17.
..**.*
*..**.
..**.*
....*.
.*..*.
..*.*.
..**.*

Generation = 2, Population = 16.
..*...
.*.**.
.***.*
......
.**...
.**...
.**.**

*** Life<ConwayCell> 2x8 ***

Generation = 0, Population = 9.
..***.**
**..*.*.

Generation = 2, Population = 8.
.*..*.**
.*..*.**

*** Life<ConwayCell> 7x10 ***

Generation = 0, Population = 16.
*..*...*..
.*.....*.*
.....*....
.*.**...**
..........
*......*..
.*......*.

*** Life<ConwayCell> 7x3 ***

Generation = 0, Population = 8.
***
..*
*..
.*.
...
.*.
..*

Generation = 2, Population = 5.
.**
*.*
.*.
...
...
...
...

*** Life<ConwayCell> 4x2 ***

Generation = 0, Population = 7.
**
**
*.
**

*** Life<ConwayCell> 2x4 ***

Generation = 0, Population = 1.
...*
....

Generation = 2, Population = 0.
....
....

*** Life<ConwayCell> 1x3 ***

Generation = 0, Population = 3.
***

*** Life<ConwayCell> 8x8 ***

Generation = 0, Population = 2.
........
........
*.......
........
........
........
........
*.......

Generation = 2, Population = 0.
........
........
........
........
........
........
........
........

*** Life<ConwayCell> 6x3 ***

Generation = 0, Population = 11.
.**
...
.**
.*.
***
***

*** Life<ConwayCell> 4x10 ***

Generation = 0, Population = 12.
..*..*..**
*..*......
..*.**....
....***...

Generation = 2, Population = 4.
..*.......
..*.......
......*...
.....*....

*** Life<ConwayCell> 10x5 ***

Generation = 0, Population = 6.
..*..
*....
.*...
.....
...*.
..*..
*....
.....
.....
.....

Generation = 2, Population = 0.
.....
.....
.....
.....
.....
.....
.....
.....
.....
.....

*** Life<ConwayCell> 6x4 ***

Generation = 0, Population = 5.
...*
....
....
*..*
*...
.*..

*** Life<ConwayCell> 4x5 ***

Generation = 0, Population = 6.
..*..
..*.*
.....
.*.**

Generation = 2, Population = 4.
.....
..***
...*.
.....

*** Life<ConwayCell> 10x4 ***

Generation = 0, Population = 9.
...*
....
..*.
.**.
....
*.*.
.*..
....
.**.
....

Generation = 2, Population = 10.
....
....
.**.
...*
..*.
.**.
**..
.**.
....
....

*** Life<ConwayCell> 6x5 ***

Generation = 0, Population = 13.
.....
..***
*.**.
**..*
.*.*.
..*.*

Generation = 2, Population = 17.
..**.
.***.
*..*.
*..**
**..*
.****

*** Life<ConwayCell> 4x10 ***

Generation = 0, Population = 10.
*..*.**...
.**...*...
.*........
..*...*...

*** Life<ConwayCell> 9x5 ***

Generation = 0, Population = 1.
.....
.....
.....
.....
....*
.....
.....
.....
.....

Generation = 2, Population = 0.
.....
.....
.....
.....
.....
.....
.....
.....
.....

Generation = 4, Population = 0.
.....
.....
.....
.....
.....
.....
.....
.....
.....

*** Life<ConwayCell> 2x2 ***

Generation = 0, Population = 4.
**
**

Generation = 2, Population = 4.
**
**
