*** Life<Cell> 12x4 ***

Generation = 0, Population = 19.
-00-
--0-
-0--
--0-
0---
-0-0
000-
00-0
----
--0-
000-
---0

Generation = 15, Population = 16.
*.-.
-.*.
...-
**..
*..*
*-**
1..*
...*
.01*
...-
..*.
..-.

Generation = 30, Population = 5.
..-.
-...
...-
..*.
*..*
....
..*.
*...
....
....
....
....

*** Life<Cell> 11x5 ***

Generation = 0, Population = 17.
-----
00---
00-0-
---00
----0
00---
-----
0--00
----0
-00--
----0

Generation = 4, Population = 28.
1*-00
-0*-*
-*0.*
-..--
..0*.
*1---
01-11
1*---
0-*--
-11-1
0-1-0

*** Life<Cell> 10x9 ***

Generation = 0, Population = 18.
0---0--0-
-0-----00
---0-----
-----0---
---------
-0--00-0-
----0----
------0--
0-00---0-
---------

Generation = 34, Population = 17.
.-..-....
....-..**
..**...**
1*.......
.*.......
.....*...
.....*...
.........
*..**....
**.1.....

*** Life<Cell> 10x5 ***

Generation = 0, Population = 14.
--0--
0----
--000
0----
0----
-----
---0-
0----
--000
0--0-

Generation = 29, Population = 4.
.....
**...
**...
.....
.....
.....
.-...
.....
.....
-....

*** Life<Cell> 10x4 ***

Generation = 0, Population = 19.
00--
-0--
-000
00--
--00
0--0
---0
0-0-
--00
-00-

Generation = 4, Population = 17.
--01
*--*
-*-.
1*.-
--.0
-0-0
---.
--1*
1**-
0*--

Generation = 8, Population = 16.
.-*-
.--*
-.-.
...-
*0.1
*-0-
-*-*
0--*
1*.*
-.01

*** Life<Cell> 12x11 ***

Generation = 0, Population = 20.
0----------
-0-0-0-----
0-0--------
-0-------0-
-------0---
-0-0-0--0--
-----------
-----------
-0-----0---
--0--------
-----0-----
-00--0-----

Generation = 3, Population = 54.
-0---0-0-0-
--0----1--0
---0--0--0-
--0--00-*--
----0*---*-
000-0--1--1
0*-0--00000
0-----00---
0-01------0
111-1*0--0-
0-0-0--0---
**1-*.--0--

Generation = 6, Population = 66.
--0--0-*-1-
-0-0-0-*--1
00000-1000-
-*0-1011*--
-*1*0.1--.-
11.**0-.01.
-.-00*---0-
---0-011101
000*---0---
.*.01..10-0
---1-------
..10..001*-

Generation = 9, Population = 63.
0---010.0*-
-1---.-*-.-
----1--0*11
1.11.11*.--
-......10.-
*-*.*0**.1.
1.*1-.--001
*---*-**11.
**-.101000-
*......-.11
0.-*1**10.0
..*1...--**

Generation = 12, Population = 53.
0--**-**-.-
1-*1-.-.*.-
*-.-*-*1*1.
*.*.*.*..--
-.*.......0
*-...-*...*
*.....001-.
**11.*..-..
**-.--*--11
.*.....*.*1
1*1.-..-1.1
.*.1**.--**

*** Life<Cell> 5x7 ***

Generation = 0, Population = 13.
0--00--
-00----
-00--0-
--0---0
-000---

Generation = 3, Population = 16.
00-.*-1
-011--1
0-.-0--
---000-
-.-1-00

*** Life<Cell> 6x4 ***

Generation = 0, Population = 13.
00--
0--0
00-0
-0-0
00--
-0-0

Generation = 4, Population = 14.
-1*-
0-1-
*001
*---
1..1
1*-0

*** Life<Cell> 5x11 ***

Generation = 0, Population = 18.
-------00--
-000-00--0-
---0-00----
0--0---0-0-
--0----00--

Generation = 10, Population = 26.
.0-...****.
**-.1.-10.*
0*****-*--.
.0*.-.....-
.1****-*.-.

Generation = 20, Population = 8.
.-...*.....
.....*..-..
-...*..**..
.1..*.....-
.-..*....-.

*** Life<Cell> 6x9 ***

Generation = 0, Population = 17.
-000---00
----00---
00-------
--0--0-0-
-----0-0-
----00--0

Generation = 37, Population = 3.
.........
...-.*...
....*....
....*....
.........
.........

*** Life<Cell> 6x4 ***

Generation = 0, Population = 11.
-000
--00
----
-00-
-0--
-000

Generation = 2, Population = 15.
1-*0
0-00
--01
10-1
---1
10-*

*** Life<Cell> 11x4 ***

Generation = 0, Population = 18.
0---
-00-
-000
0---
--00
-0-0
00--
0--0
-0--
----
-00-

Generation = 22, Population = 15.
**..
1...
.***
*..*
**.*
*..*
....
.-..
.*..
.*..
....

*** Life<Cell> 4x11 ***

Generation = 0, Population = 15.
0------0--0
0--0---0-0-
-0---0--00-
0---000----

Generation = 13, Population = 16.
-.-..-.*-*-
..*.**....*
.*-*1.-***.
-.*...-***.

*** Life<Cell> 9x10 ***

Generation = 0, Population = 17.
----0--000
0------0--
--0-------
--0-------
---0-0-0--
----0-----
----------
--------00
--0--0--0-

Generation = 3, Population = 49.
0--01-001*
10-0--0-0-
*01--10-1-
001--00*--
01-10--101
-0---0----
-011--0--0
0--010-*-*
--1-*-***-

Generation = 6, Population = 41.
.-*-.-0-*.
.-0.1-0*-1
.0*10--*.0
----0-*.-*
0*-.1----*
0-111----1
0-*1---0*-
1-01..0.-*
---*.-***0

Generation = 9, Population = 51.
.-.0**10**
.-1**10.-*
.*.-111.*-
-0.--0**0.
-*-.*1--0.
-*1.--1*0.
-1.*-*01*.
.11...*.**
*******..0

Generation = 12, Population = 46.
.-*-...0**
.0..*--**.
..*---*.*1
*0*0-*.*1.
-.1*.-**-*
-.*.*-1***
*-..1*0..*
*.-....*.*
.********-

Generation = 15, Population = 32.
.-.**..-..
.1..*-1...
..*1--....
.-.0-***1.
...**1.*1*
1*...-*...
.***1.-...
*........*
.****...*-

Generation = 18, Population = 26.
.0****.-..
.**..-1...
.*.**.*...
.-.-*...1.
.*...-.*.*
*....-..**
.***..-*..
....**....
.........-

Generation = 21, Population = 27.
.-...*.-..
.**..-*...
.*.....**.
.-.1.*.**.
.*...*....
.***.1....
**....1**.
..**.**...
....*....-

Generation = 24, Population = 30.
*-*...*1..
*..*.-.**.
.....**.*.
.-.-.*...*
.*...*.**.
.*..**.**.
.***.*-...
.**...**..
.........-

*** Life<Cell> 8x9 ***

Generation = 0, Population = 16.
----0----
-0----0--
-----00--
-00--0---
000----0-
-0-------
--------0
-0-----0-

Generation = 12, Population = 34.
.***.1.-.
-****1**.
...0--.*.
..-*.*-*1
...*-.*-*
-.**1...*
..101**.*
..**-*-.1

Generation = 24, Population = 6.
.........
-....*...
......**.
......**.
......*..
-........
.........
.........

*** Life<Cell> 6x11 ***

Generation = 0, Population = 17.
------0--0-
0----00---0
0-------0--
--0-0-00---
----0---0--
----0---0-0

Generation = 2, Population = 25.
1---0-*1-0-
*--0--0---0
*-1-1---011
--0-*----0-
0-1-----*-1
------01--0

Generation = 4, Population = 32.
*-0-0-**-00
*----**--1*
*0*-.-1--.1
0-0-.11-1--
0-*-1-10.-.
--1--1**1--

Generation = 6, Population = 30.
.---01**---
.000-*.011.
*0*-.11--.*
0--1.*.-1*-
*-.0-0.-.-*
--*1-....11

Generation = 8, Population = 32.
.1-0-*..-10
*--*-..01**
**.-.**-1.*
0-0..*.*..1
*1.0-**-.-.
11*--...**-

Generation = 10, Population = 26.
.1---...0--
*--.-*****.
*.*-.*.0..*
0-0*...*..*
.1.-1.*0*-.
1..1-....*-

Generation = 12, Population = 30.
.1111*..---
.--.-.*..*.
*.*0..*-.**
*10....***.
*-*1-***.-.
1..1-.*.**-

Generation = 14, Population = 32.
..1--*..1*-
*1-*-.*..**
*.**..*0...
*1*.***..**
.-.11....0*
*.**-**...-

Generation = 16, Population = 33.
**1-*...**-
**-*1**...*
**..*..-...
*-....*...*
***11****-*
.***-.....*

*** Life<Cell> 8x7 ***

Generation = 0, Population = 18.
0------
------0
-----0-
0-0----
0----0-
0-0-00-
0---00-
-00-00-

Generation = 40, Population = 7.
....**.
....*.*
-.....*
...-.**
.......
.......
.......
.......

*** Life<Cell> 9x4 ***

Generation = 0, Population = 15.
0--0
-000
-00-
--0-
-00-
----
0--0
--0-
-00-

Generation = 4, Population = 14.
-1--
*-.1
1-.-
*-0.
-.--
-001
-10-
*-1-
-*--

Generation = 8, Population = 16.
--1.
*-**
--.0
*.1.
1.-*
*-**
0.-1
.*.*
-.--

*** Life<Cell> 6x6 ***

Generation = 0, Population = 18.
0-000-
--0--0
000--0
0--0--
--0-0-
-0000-

Generation = 4, Population = 18.
001-11
1----.
-----*
*1-*-1
0--1.-
0**01.

Generation = 8, Population = 20.
--*-**
.***1*
110*1.
..1.-.
--*-.*
***-*.

Generation = 12, Population = 10.
1**-..
...*1.
..*.1.
...*-.
00....
...-..

Generation = 16, Population = 11.
...**.
....**
.*..**
*.***.
.-....
...-..
