*** Life<ConwayCell> 5x5 ***

Generation = 0, Population = 8.
.*...
.*.**
....*
*..*.
*....

Generation = 1, Population = 6.
..*..
..***
..*.*
.....
.....

Generation = 2, Population = 6.
..*..
.**.*
..*.*
.....
.....

Generation = 3, Population = 7.
.***.
.**..
.**..
.....
.....

Generation = 4, Population = 5.
.*.*.
*....
.**..
.....
.....

Generation = 5, Population = 2.
.....
*....
.*...
.....
.....

*** Life<ConwayCell> 5x5 ***

Generation = 0, Population = 9.
..*..
...*.
*..**
.*.**
.*...

Generation = 1, Population = 8.
.....
..***
.....
**.**
..*..

Generation = 2, Population = 9.
...*.
...*.
.*...
.***.
.***.

Generation = 3, Population = 7.
.....
..*..
.*.*.
*..*.
.*.*.

Generation = 4, Population = 8.
.....
..*..
.*.*.
**.**
..*..

Generation = 5, Population = 12.
.....
..*..
**.**
**.**
.***.

*** Life<ConwayCell> 5x5 ***

Generation = 0, Population = 8.
**..*
.*...
*.*..
.....
**...

Generation = 1, Population = 5.
**...
..*..
.*...
*....
.....

Generation = 2, Population = 4.
.*...
*.*..
.*...
.....
.....

Generation = 3, Population = 4.
.*...
*.*..
.*...
.....
.....

Generation = 4, Population = 4.
.*...
*.*..
.*...
.....
.....

Generation = 5, Population = 4.
.*...
*.*..
.*...
.....
.....

*** Life<ConwayCell> 5x5 ***

Generation = 0, Population = 9.
***..
.*...
..*..
.....
.****

Generation = 1, Population = 7.
***..
*....
.....
.*...
..**.

Generation = 2, Population = 5.
**...
*....
.....
..*..
..*..

Generation = 3, Population = 4.
**...
**...
.....
.....
.....

Generation = 4, Population = 4.
**...
**...
.....
.....
.....

Generation = 5, Population = 4.
**...
**...
.....
.....
.....

*** Life<ConwayCell> 5x5 ***

Generation = 0, Population = 8.
.*...
.*..*
*.*..
....*
*...*

Generation = 1, Population = 7.
.....
***..
.*.*.
.*.*.
.....

Generation = 2, Population = 5.
.*...
***..
...*.
.....
.....

Generation = 3, Population = 8.
***..
***..
.**..
.....
.....

Generation = 4, Population = 5.
*.*..
...*.
*.*..
.....
.....

Generation = 5, Population = 2.
.....
..**.
.....
.....
.....

*** Life<ConwayCell> 5x5 ***

Generation = 0, Population = 9.
....*
**...
.*..*
..***
...*.

Generation = 1, Population = 10.
.....
**...
**..*
..*.*
..***

Generation = 2, Population = 9.
.....
**...
*.**.
..*.*
..*.*

Generation = 3, Population = 8.
.....
***..
*.**.
..*.*
.....

Generation = 4, Population = 7.
.*...
*.**.
*....
.**..
.....

Generation = 5, Population = 7.
.**..
*.*..
*..*.
.*...
.....

*** Life<ConwayCell> 5x5 ***

Generation = 0, Population = 9.
**...
*.**.
*...*
...*.
.*...

Generation = 1, Population = 9.
***..
*.**.
.**.*
.....
.....

Generation = 2, Population = 6.
*.**.
*....
.**..
.....
.....

Generation = 3, Population = 4.
.*...
*..*.
.*...
.....
.....

Generation = 4, Population = 3.
.....
***..
.....
.....
.....

Generation = 5, Population = 3.
.*...
.*...
.*...
.....
.....

*** Life<ConwayCell> 5x5 ***

Generation = 0, Population = 9.
..*.*
*..*.
.....
*.*.*
.**..

Generation = 1, Population = 9.
...*.
...*.
.*.*.
..**.
.***.

Generation = 2, Population = 7.
.....
...**
...**
....*
.*.*.

Generation = 3, Population = 4.
.....
...**
.....
..*.*
.....

Generation = 4, Population = 1.
.....
.....
....*
.....
.....

Generation = 5, Population = 0.
.....
.....
.....
.....
.....

*** Life<ConwayCell> 5x5 ***

Generation = 0, Population = 6.
.*..*
...*.
..**.
.....
.*...

Generation = 1, Population = 5.
.....
...**
..**.
..*..
.....

Generation = 2, Population = 7.
.....
..***
..*.*
..**.
.....

Generation = 3, Population = 7.
...*.
..*.*
.*..*
..**.
.....

Generation = 4, Population = 7.
...*.
..*.*
.*..*
..**.
.....

Generation = 5, Population = 7.
...*.
..*.*
.*..*
..**.
.....

*** Life<ConwayCell> 5x5 ***

Generation = 0, Population = 7.
.**..
*....
.*..*
*..*.
.....

Generation = 1, Population = 5.
.*...
*.*..
**...
.....
.....

Generation = 2, Population = 5.
.*...
*.*..
**...
.....
.....

Generation = 3, Population = 5.
.*...
*.*..
**...
.....
.....

Generation = 4, Population = 5.
.*...
*.*..
**...
.....
.....

Generation = 5, Population = 5.
.*...
*.*..
**...
.....
.....

*** Life<ConwayCell> 5x5 ***

Generation = 0, Population = 7.
..*..
.**.*
....*
*...*
.....

Generation = 1, Population = 7.
.***.
.**..
.*..*
.....
.....

Generation = 2, Population = 5.
.*.*.
*....
.**..
.....
.....

Generation = 3, Population = 2.
.....
*....
.*...
.....
.....

Generation = 4, Population = 0.
.....
.....
.....
.....
.....

Generation = 5, Population = 0.
.....
.....
.....
.....
.....

*** Life<ConwayCell> 5x5 ***

Generation = 0, Population = 8.
**.*.
...*.
.....
***.*
.....

Generation = 1, Population = 7.
..*..
..*..
.***.
.*...
.*...

Generation = 2, Population = 4.
.....
.....
.*.*.
**...
.....

Generation = 3, Population = 6.
.....
.....
***..
***..
.....

Generation = 4, Population = 6.
.....
.*...
*.*..
*.*..
.*...

Generation = 5, Population = 6.
.....
.*...
*.*..
*.*..
.*...

*** Life<ConwayCell> 5x5 ***

Generation = 0, Population = 9.
*...*
..*..
*.***
..**.
.....

Generation = 1, Population = 6.
.....
..*.*
....*
.**.*
.....

Generation = 2, Population = 5.
.....
...*.
.**.*
...*.
.....

Generation = 3, Population = 6.
.....
..**.
..*.*
..**.
.....

Generation = 4, Population = 6.
.....
..**.
.*..*
..**.
.....

Generation = 5, Population = 6.
.....
..**.
.*..*
..**.
.....

*** Life<ConwayCell> 5x5 ***

Generation = 0, Population = 9.
*....
.*.**
.....
**.**
.*...

Generation = 1, Population = 8.
.....
.....
**...
***..
***..

Generation = 2, Population = 4.
.....
.....
*.*..
.....
*.*..

Generation = 3, Population = 0.
.....
.....
.....
.....
.....

Generation = 4, Population = 0.
.....
.....
.....
.....
.....

Generation = 5, Population = 0.
.....
.....
.....
.....
.....

*** Life<ConwayCell> 5x5 ***

Generation = 0, Population = 8.
*....
*...*
*...*
..*..
*..*.

Generation = 1, Population = 6.
.....
**...
.*.*.
.*.*.
.....

Generation = 2, Population = 4.
.....
***..
.*...
.....
.....

Generation = 3, Population = 7.
.*...
***..
***..
.....
.....

Generation = 4, Population = 6.
***..
.....
*.*..
.*...
.....

Generation = 5, Population = 5.
.*...
*.*..
.*...
.*...
.....

*** Life<ConwayCell> 5x5 ***

Generation = 0, Population = 7.
..**.
..*..
.....
...*.
*.*.*

Generation = 1, Population = 6.
..**.
..**.
.....
...*.
...*.

Generation = 2, Population = 6.
..**.
..**.
..**.
.....
.....

Generation = 3, Population = 6.
..**.
.*..*
..**.
.....
.....

Generation = 4, Population = 6.
..**.
.*..*
..**.
.....
.....

Generation = 5, Population = 6.
..**.
.*..*
..**.
.....
.....

*** Life<ConwayCell> 5x5 ***

Generation = 0, Population = 9.
*...*
.*.*.
.*..*
.*.**
.....

Generation = 1, Population = 11.
.....
*****
**..*
..***
.....

Generation = 2, Population = 13.
.***.
*.***
*....
.****
...*.

Generation = 3, Population = 11.
.*..*
*...*
*....
.****
...**

Generation = 4, Population = 9.
.....
**...
*.*.*
.**.*
....*

Generation = 5, Population = 8.
.....
**...
*.*..
.**.*
...*.

*** Life<ConwayCell> 5x5 ***

Generation = 0, Population = 8.
*...*
..*.*
.*...
*...*
*....

Generation = 1, Population = 7.
...*.
.*.*.
.*.*.
**...
.....

Generation = 2, Population = 7.
..*..
...**
.*...
***..
.....

Generation = 3, Population = 10.
...*.
..**.
**.*.
***..
.*...

Generation = 4, Population = 10.
..**.
.*.**
*..*.
.....
***..

Generation = 5, Population = 11.
..***
.*..*
..***
*.*..
.*...

*** Life<ConwayCell> 5x5 ***

Generation = 0, Population = 9.
*...*
..*.*
**..*
...*.
*....

Generation = 1, Population = 8.
...*.
*...*
.**.*
**...
.....

Generation = 2, Population = 8.
.....
.**.*
..**.
***..
.....

Generation = 3, Population = 7.
.....
.**..
*....
.***.
.*...

Generation = 4, Population = 7.
.....
.*...
*..*.
***..
.*...

Generation = 5, Population = 6.
.....
.....
*....
*.*..
***..

*** Life<ConwayCell> 5x5 ***

Generation = 0, Population = 8.
*..*.
.*..*
*....
.**..
....*

Generation = 1, Population = 5.
.....
**...
*.*..
.*...
.....

Generation = 2, Population = 5.
.....
**...
*.*..
.*...
.....

Generation = 3, Population = 5.
.....
**...
*.*..
.*...
.....

Generation = 4, Population = 5.
.....
**...
*.*..
.*...
.....

Generation = 5, Population = 5.
.....
**...
*.*..
.*...
.....

*** Life<ConwayCell> 5x5 ***

Generation = 0, Population = 9.
..**.
....*
.*.*.
*..**
...*.

Generation = 1, Population = 8.
...*.
....*
..**.
...**
...**

Generation = 2, Population = 5.
.....
..*.*
..*..
.....
...**

Generation = 3, Population = 3.
.....
...*.
...*.
...*.
.....

Generation = 4, Population = 3.
.....
.....
..***
.....
.....

Generation = 5, Population = 3.
.....
...*.
...*.
...*.
.....

*** Life<ConwayCell> 5x5 ***

Generation = 0, Population = 8.
*.*..
*....
*.*..
.*...
*.*..

Generation = 1, Population = 6.
.*...
*....
*....
*.*..
.*...

Generation = 2, Population = 5.
.....
**...
*....
*....
.*...

Generation = 3, Population = 5.
.....
**...
*....
**...
.....

Generation = 4, Population = 4.
.....
**...
.....
**...
.....

Generation = 5, Population = 0.
.....
.....
.....
.....
.....

*** Life<ConwayCell> 5x5 ***

Generation = 0, Population = 10.
.*.*.
...*.
..***
...**
..**.

Generation = 1, Population = 5.
..*..
.....
..*..
.....
..***

Generation = 2, Population = 2.
.....
.....
.....
..*..
...*.

Generation = 3, Population = 0.
.....
.....
.....
.....
.....

Generation = 4, Population = 0.
.....
.....
.....
.....
.....

Generation = 5, Population = 0.
.....
.....
.....
.....
.....

*** Life<ConwayCell> 5x5 ***

Generation = 0, Population = 7.
.....
*..**
....*
..*.*
*....

Generation = 1, Population = 4.
.....
...**
....*
...*.
.....

Generation = 2, Population = 3.
.....
...**
....*
.....
.....

Generation = 3, Population = 4.
.....
...**
...**
.....
.....

Generation = 4, Population = 4.
.....
...**
...**
.....
.....

Generation = 5, Population = 4.
.....
...**
...**
.....
.....

*** Life<ConwayCell> 5x5 ***

Generation = 0, Population = 10.
....*
**..*
...*.
....*
.****

Generation = 1, Population = 8.
.....
...**
...**
....*
..***

Generation = 2, Population = 5.
.....
...**
.....
..*..
...**

Generation = 3, Population = 3.
.....
.....
...*.
...*.
...*.

Generation = 4, Population = 3.
.....
.....
.....
..***
.....

Generation = 5, Population = 3.
.....
.....
...*.
...*.
...*.

*** Life<ConwayCell> 5x5 ***

Generation = 0, Population = 7.
...*.
*.*..
..*..
....*
**...

Generation = 1, Population = 6.
.....
.***.
.*.*.
.*...
.....

Generation = 2, Population = 7.
..*..
.*.*.
**.*.
..*..
.....

Generation = 3, Population = 9.
..*..
**.*.
**.*.
.**..
.....

Generation = 4, Population = 8.
.**..
*..*.
...*.
***..
.....

Generation = 5, Population = 9.
.**..
.*.*.
*..*.
.**..
.*...

*** Life<ConwayCell> 5x5 ***

Generation = 0, Population = 8.
.....
***..
...**
....*
.*.*.

Generation = 1, Population = 10.
.*...
.***.
.****
..*.*
.....

Generation = 2, Population = 7.
.*...
*...*
....*
.**.*
.....

Generation = 3, Population = 3.
.....
.....
.*..*
...*.
.....

Generation = 4, Population = 0.
.....
.....
.....
.....
.....

Generation = 5, Population = 0.
.....
.....
.....
.....
.....

*** Life<ConwayCell> 5x5 ***

Generation = 0, Population = 8.
.***.
....*
**..*
.....
.*...

Generation = 1, Population = 6.
..**.
*...*
.....
**...
.....

Generation = 2, Population = 4.
...*.
...*.
**...
.....
.....

Generation = 3, Population = 1.
.....
..*..
.....
.....
.....

Generation = 4, Population = 0.
.....
.....
.....
.....
.....

Generation = 5, Population = 0.
.....
.....
.....
.....
.....

*** Life<ConwayCell> 5x5 ***

Generation = 0, Population = 7.
..*..
....*
..*..
..*.*
.*..*

Generation = 1, Population = 4.
.....
...*.
.....
.**..
...*.

Generation = 2, Population = 3.
.....
.....
..*..
..*..
..*..

Generation = 3, Population = 3.
.....
.....
.....
.***.
.....

Generation = 4, Population = 3.
.....
.....
..*..
..*..
..*..

Generation = 5, Population = 3.
.....
.....
.....
.***.
.....

*** Life<ConwayCell> 5x5 ***

Generation = 0, Population = 7.
..*..
**...
.**..
.....
*.*..

Generation = 1, Population = 6.
.*...
*....
***..
..*..
.....

Generation = 2, Population = 5.
.....
*.*..
*.*..
..*..
.....

Generation = 3, Population = 3.
.....
.....
..**.
.*...
.....

Generation = 4, Population = 2.
.....
.....
..*..
..*..
.....

Generation = 5, Population = 0.
.....
.....
.....
.....
.....
